,max_depth,max_features,min_samples_leaf
0,87,4,9
1,45,3,10
2,36,2,4
3,93,9,10
4,36,4,5
5,45,7,6
6,61,7,7
7,50,10,5
8,17,2,6
9,17,5,4
10,98,10,8
11,97,10,8
12,77,9,2
13,72,8,10
14,100,9,8
15,85,8,9
16,67,10,8
17,64,6,10
18,83,9,9
19,69,7,7
20,90,8,7
21,94,10,8
22,78,10,9
23,92,9,8
24,56,10,8
25,60,9,7
26,54,8,8
27,39,10,6
28,28,6,9
29,66,9,9
30,75,5,7
31,86,10,8
32,56,10,8
33,56,9,8
34,53,10,7
35,44,8,9
36,48,9,5
37,30,10,6
38,57,9,10
39,68,7,6
40,42,3,8
41,92,10,8
42,82,10,7
43,94,10,2
44,60,10,9
45,49,9,8
46,80,9,8
47,73,8,3
48,89,10,7
49,64,10,10
50,71,9,8
51,49,9,8
52,51,9,9
53,96,10,7
54,36,8,8
55,47,7,9
56,62,10,8
57,100,10,7
58,60,10,6
59,57,4,9
60,10,10,5
61,62,9,8
62,52,9,8
63,66,10,7
64,57,10,8
65,44,5,9
66,40,9,8
67,54,9,7
68,55,10,7
69,63,8,7
70,75,8,8
71,53,9,8
72,46,9,8
73,50,10,7
74,59,9,9
75,69,10,8
76,84,9,9
77,90,2,8
78,65,10,7
79,88,9,6
80,36,10,7
81,33,10,7
82,95,10,8
83,24,10,8
84,26,9,7
85,39,10,9
86,35,10,10
87,42,10,9
88,20,10,9
89,38,10,10
90,93,10,6
91,30,9,8
92,58,10,8
93,55,9,9
94,55,10,9
95,62,9,9
96,80,10,9
97,33,8,8
98,68,10,7
99,54,7,5
